-- Merging decision tree log ---
manifest
ADDED from /home/meyer/documents/meCreativeStudio/projects/ProjectX/calendar-view-module/src/main/AndroidManifest.xml:1:1-9:12
INJECTED from /home/meyer/documents/meCreativeStudio/projects/ProjectX/calendar-view-module/src/main/AndroidManifest.xml:1:1-9:12
INJECTED from /home/meyer/documents/meCreativeStudio/projects/ProjectX/calendar-view-module/src/main/AndroidManifest.xml:1:1-9:12
INJECTED from /home/meyer/documents/meCreativeStudio/projects/ProjectX/calendar-view-module/src/main/AndroidManifest.xml:1:1-9:12
INJECTED from /home/meyer/documents/meCreativeStudio/projects/ProjectX/calendar-view-module/src/main/AndroidManifest.xml:1:1-9:12
INJECTED from /home/meyer/documents/meCreativeStudio/projects/ProjectX/calendar-view-module/src/main/AndroidManifest.xml:1:1-9:12
INJECTED from /home/meyer/documents/meCreativeStudio/projects/ProjectX/calendar-view-module/src/main/AndroidManifest.xml:1:1-9:12
	package
		ADDED from /home/meyer/documents/meCreativeStudio/projects/ProjectX/calendar-view-module/src/main/AndroidManifest.xml:2:5-56
		INJECTED from /home/meyer/documents/meCreativeStudio/projects/ProjectX/calendar-view-module/src/main/AndroidManifest.xml
		INJECTED from /home/meyer/documents/meCreativeStudio/projects/ProjectX/calendar-view-module/src/main/AndroidManifest.xml
	android:versionName
		INJECTED from /home/meyer/documents/meCreativeStudio/projects/ProjectX/calendar-view-module/src/main/AndroidManifest.xml
		ADDED from /home/meyer/documents/meCreativeStudio/projects/ProjectX/calendar-view-module/src/main/AndroidManifest.xml:1:1-9:12
		INJECTED from /home/meyer/documents/meCreativeStudio/projects/ProjectX/calendar-view-module/src/main/AndroidManifest.xml
	android:versionCode
		INJECTED from /home/meyer/documents/meCreativeStudio/projects/ProjectX/calendar-view-module/src/main/AndroidManifest.xml
		ADDED from /home/meyer/documents/meCreativeStudio/projects/ProjectX/calendar-view-module/src/main/AndroidManifest.xml:1:1-9:12
		INJECTED from /home/meyer/documents/meCreativeStudio/projects/ProjectX/calendar-view-module/src/main/AndroidManifest.xml
	xmlns:android
		ADDED from /home/meyer/documents/meCreativeStudio/projects/ProjectX/calendar-view-module/src/main/AndroidManifest.xml:1:11-69
application
ADDED from /home/meyer/documents/meCreativeStudio/projects/ProjectX/calendar-view-module/src/main/AndroidManifest.xml:4:5-7:19
activity#com.mecreativestudio.calendar_view_module.CalendarViewActivity
ADDED from /home/meyer/documents/meCreativeStudio/projects/ProjectX/calendar-view-module/src/main/AndroidManifest.xml:5:9-98
	android:name
		ADDED from /home/meyer/documents/meCreativeStudio/projects/ProjectX/calendar-view-module/src/main/AndroidManifest.xml:5:19-96
activity#com.mecreativestudio.calendar_view_module.EditEvent
ADDED from /home/meyer/documents/meCreativeStudio/projects/ProjectX/calendar-view-module/src/main/AndroidManifest.xml:6:9-87
	android:name
		ADDED from /home/meyer/documents/meCreativeStudio/projects/ProjectX/calendar-view-module/src/main/AndroidManifest.xml:6:19-85
uses-sdk
INJECTED from /home/meyer/documents/meCreativeStudio/projects/ProjectX/calendar-view-module/src/main/AndroidManifest.xml reason: use-sdk injection requested
INJECTED from /home/meyer/documents/meCreativeStudio/projects/ProjectX/calendar-view-module/src/main/AndroidManifest.xml
INJECTED from /home/meyer/documents/meCreativeStudio/projects/ProjectX/calendar-view-module/src/main/AndroidManifest.xml
INJECTED from /home/meyer/documents/meCreativeStudio/projects/ProjectX/calendar-view-module/src/main/AndroidManifest.xml
INJECTED from /home/meyer/documents/meCreativeStudio/projects/ProjectX/calendar-view-module/src/main/AndroidManifest.xml
	android:targetSdkVersion
		INJECTED from /home/meyer/documents/meCreativeStudio/projects/ProjectX/calendar-view-module/src/main/AndroidManifest.xml
		ADDED from /home/meyer/documents/meCreativeStudio/projects/ProjectX/calendar-view-module/src/main/AndroidManifest.xml
		INJECTED from /home/meyer/documents/meCreativeStudio/projects/ProjectX/calendar-view-module/src/main/AndroidManifest.xml
	android:minSdkVersion
		INJECTED from /home/meyer/documents/meCreativeStudio/projects/ProjectX/calendar-view-module/src/main/AndroidManifest.xml
		ADDED from /home/meyer/documents/meCreativeStudio/projects/ProjectX/calendar-view-module/src/main/AndroidManifest.xml
		INJECTED from /home/meyer/documents/meCreativeStudio/projects/ProjectX/calendar-view-module/src/main/AndroidManifest.xml
